ubigeo,provincia,distrito,ordMunicipal,fechaOrdMunicipal,depende,resolucionPerfil,fechaResPerfil,resolucionAlcaldia,fechaReslAlcaldia,condicionLaboral,otrosCargos,numCargos,miembrosAdicionales,numMiembrosAdicionales,nroRaContrato,fechaNroContrato,estadoPerfil,ordenanzaJass,fechaOrdJass,ordenanzaCloro,fechaOrdenanzaCloro,ordenanzaAnemia,fechaOrdAnemia,planSupervision,otras ordenanzas,otrasOrdMun,fechaotrasOrdM,created_at,updated_at,dniUsuario
030103 ,ABANCAY,CIRCA,,,,,,,,,,,,,,,,,,,,,,,,,,,,
030106 ,ABANCAY,LAMBRAMA,,,,,,,,,,,,,,,,,,,,,,,,,,,,
030101 ,ABANCAY,ABANCAY,,,,,,,,,,,,,,,,,,,,,,,,,,,,
 030109 ,ABANCAY,TAMBURCO,,,,,,,,,,,,,,,,,,,,,,,,,,,,
030107 ,ABANCAY,PICHIRHUA,,,,,,,,,,,,,,,,,,,,,,,,,,,,
030102 ,ABANCAY,CHACOCHE,,,,,,,,,,,,,,,,,,,,,,,,,,,,
030104 ,ABANCAY,CURAHUASI,,,,,,,,,,,,,,,,,,,,,,,,,,,,
 030105 ,ABANCAY,HUANIPACA,,,,,,,,,,,,,,,,,,,,,,,,,,,,
 030108 ,ABANCAY,CACHORA,,,,,,,,,,,,,,,,,,,,,,,,,,,,
030207 ,ANDAHUAYLAS,KISHUARA,,,,,,,,,,,,,,,,,,,,,,,,,,,,
030204 ,ANDAHUAYLAS,HUANCARAMA,,,,,,,,,,,,,,,,,,,,,,,,,,,,
030218 ,ANDAHUAYLAS,TURPO,,,,,,,,,,,,,,,,,,,,,,,,,,,,
030216 ,ANDAHUAYLAS,TALAVERA,,,,,,,,,,,,,,,,,,,,,,,,,,,,
030208 ,ANDAHUAYLAS,PACOBAMBA,,,,,,,,,,,,,,,,,,,,,,,,,,,,
030215 ,ANDAHUAYLAS,SANTA MARIA DE CHICMO,,,,,,,,,,,,,,,,,,,,,,,,,,,,
030201 ,ANDAHUAYLAS,ANDAHUAYLAS,,,,,,,,,,,,,,,,,,,,,,,,,,,,
030202 ,ANDAHUAYLAS,ANDARAPA,,,,,,,,,,,,,,,,,,,,,,,,,,,,
030203 ,ANDAHUAYLAS,CHIARA,,,,,,,,,,,,,,,,,,,,,,,,,,,,
 030205 ,ANDAHUAYLAS,HUANCARAY,,,,,,,,,,,,,,,,,,,,,,,,,,,,
 030206 ,ANDAHUAYLAS,HUAYANA,,,,,,,,,,,,,,,,,,,,,,,,,,,,
030210 ,ANDAHUAYLAS,PAMPACHIRI,,,,,,,,,,,,,,,,,,,,,,,,,,,,
 030211 ,ANDAHUAYLAS,POMACOCHA,,,,,,,,,,,,,,,,,,,,,,,,,,,,
030212 ,ANDAHUAYLAS,SAN ANTONIO DE CACHI,,,,,,,,,,,,,,,,,,,,,,,,,,,,
 030213 ,ANDAHUAYLAS,SAN JERONIMO ,,,,,,,,,,,,,,,,,,,,,,,,,,,,
030214 ,ANDAHUAYLAS,SAN MIGUEL DE CHACCRAMPA,,,,,,,,,,,,,,,,,,,,,,,,,,,,
030217 ,ANDAHUAYLAS,TUMAYHUARACA,,,,,,,,,,,,,,,,,,,,,,,,,,,,
030209 ,ANDAHUAYLAS,PACUCHA,,,,,,,,,,,,,,,,,,,,,,,,,,,,
 030219 ,ANDAHUAYLAS,KAQUIABAMBA,,,,,,,,,,,,,,,,,,,,,,,,,,,,
 030220 ,ANDAHUAYLAS,JOSE MARIA ARGUEDAS,,,,,,,,,,,,,,,,,,,,,,,,,,,,
030301 ,ANTABAMBA,ANTABAMBA,,,,,,,,,,,,,,,,,,,,,,,,,,,,
 030304 ,ANTABAMBA,JUAN ESPINOZSA MEDRANO,,,,,,,,,,,,,,,,,,,,,,,,,,,,
 030302 ,ANTABAMBA,EL ORO,,,,,,,,,,,,,,,,,,,,,,,,,,,,
 030305 ,ANTABAMBA,OROPESA,,,,,,,,,,,,,,,,,,,,,,,,,,,,
030303 ,ANTABAMBA,HUAQUIRCA,,,,,,,,,,,,,,,,,,,,,,,,,,,,
 030306 ,ANTABAMBA,PACHACONAS,,,,,,,,,,,,,,,,,,,,,,,,,,,,
030307 ,ANTABAMBA,SABAINO,,,,,,,,,,,,,,,,,,,,,,,,,,,,
 030410 ,AYMARAES,POCOHUANCA,,,,,,,,,,,,,,,,,,,,,,,,,,,,
 030411 ,AYMARAES,SAN JUAN DE CHACÑA,,,,,,,,,,,,,,,,,,,,,,,,,,,,
030414 ,AYMARAES,TAPAIRIHUA,,,,,,,,,,,,,,,,,,,,,,,,,,,,
030417 ,AYMARAES,YANACA,,,,,,,,,,,,,,,,,,,,,,,,,,,,
030416 ,AYMARAES,TORAYA,,,,,,,,,,,,,,,,,,,,,,,,,,,,
 030415 ,AYMARAES,TINTAY,,,,,,,,,,,,,,,,,,,,,,,,,,,,
030409 ,AYMARAES,LUCRE,,,,,,,,,,,,,,,,,,,,,,,,,,,,
 030401 ,AYMARAES,CHALHUANCA,,,,,,,,,,,,,,,,,,,,,,,,,,,,
030402 ,AYMARAES,CAPAYA,,,,,,,,,,,,,,,,,,,,,,,,,,,,
030403 ,AYMARAES,CARAYBAMBA,,,,,,,,,,,,,,,,,,,,,,,,,,,,
030412 ,AYMARAES,SAÑAYCA,,,,,,,,,,,,,,,,,,,,,,,,,,,,
030413 ,AYMARAES,SORAYA,,,,,,,,,,,,,,,,,,,,,,,,,,,,
030404 ,AYMARAES,CHAPIMARCA,,,,,,,,,,,,,,,,,,,,,,,,,,,,
030406 ,AYMARAES,COTARUSE,,,,,,,,,,,,,,,,,,,,,,,,,,,,
 030407 ,AYMARAES,IHUAYLLO,,,,,,,,,,,,,,,,,,,,,,,,,,,,
 030408 ,AYMARAES,JUSTO APU SAHUARAURA,,,,,,,,,,,,,,,,,,,,,,,,,,,,
030405 ,AYMARAES,COLCABAMBA,,,,,,,,,,,,,,,,,,,,,,,,,,,,
 030501 ,COTABAMBAS,TAMBOBAMBA,,,,,,,,,,,,,,,,,,,,,,,,,,,,
030506 ,COTABAMBAS,CHALHUAHUACHO,,,,,,,,,,,,,,,,,,,,,,,,,,,,
 030502 ,COTABAMBAS,COTABAMBAS,,,,,,,,,,,,,,,,,,,,,,,,,,,,
030503 ,COTABAMBAS,COYLLURQUI,,,,,,,,,,,,,,,,,,,,,,,,,,,,
030504 ,COTABAMBAS,HAQUIRA,,,,,,,,,,,,,,,,,,,,,,,,,,,,
030505 ,COTABAMBAS,MARA,,,,,,,,,,,,,,,,,,,,,,,,,,,,
 030601 ,CHINCHEROS,CHINCHEROS,,,,,,,,,,,,,,,,,,,,,,,,,,,,
 030602 ,CHINCHEROS,ANCO HUAYLLO/ URIPA,,,,,,,,,,,,,,,,,,,,,,,,,,,,
030603 ,CHINCHEROS,COCHARCAS,,,,,,,,,,,,,,,,,,,,,,,,,,,,
030610 ,CHINCHEROS,EL PORVENIR,,,,,,,,,,,,,,,,,,,,,,,,,,,,
 030604 ,CHINCHEROS,HUACCANA,,,,,,,,,,,,,,,,,,,,,,,,,,,,
030611 ,CHINCHEROS,LOS CHANCAS,,,,,,,,,,,,,,,,,,,,,,,,,,,,
 030605 ,CHINCHEROS,OCOBAMBA,,,,,,,,,,,,,,,,,,,,,,,,,,,,
030606 ,CHINCHEROS,ONGOY,,,,,,,,,,,,,,,,,,,,,,,,,,,,
030608 ,CHINCHEROS,RANRACANCHA,,,,,,,,,,,,,,,,,,,,,,,,,,,,
030609 ,CHINCHEROS,ROCCHAC,,,,,,,,,,,,,,,,,,,,,,,,,,,,
 030607 ,CHINCHEROS,URANMARCA,,,,,,,,,,,,,,,,,,,,,,,,,,,,
 030704 ,GRAU,HUAYLLATI,,,,,,,,,,,,,,,,,,,,,,,,,,,,
030705 ,GRAU,MAMARA,,,,,,,,,,,,,,,,,,,,,,,,,,,,
030703 ,GRAU,MARISCAL GAMARRA,,,,,,,,,,,,,,,,,,,,,,,,,,,,
030706 ,GRAU,MICAELA BASTIDAS,,,,,,,,,,,,,,,,,,,,,,,,,,,,
 030707 ,GRAU,PATAYPAMPA,,,,,,,,,,,,,,,,,,,,,,,,,,,,
030708 ,GRAU,PROGRESO,,,,,,,,,,,,,,,,,,,,,,,,,,,,
030709 ,GRAU,SAN ANTONIO,,,,,,,,,,,,,,,,,,,,,,,,,,,,
030710 ,GRAU,SANTA ROSA,,,,,,,,,,,,,,,,,,,,,,,,,,,,
030713 ,GRAU,VIRUNDO,,,,,,,,,,,,,,,,,,,,,,,,,,,,
030701 ,GRAU,CHUQUIBAMBILLA,,,,,,,,,,,,,,,,,,,,,,,,,,,,
030702 ,GRAU,CURPAHUASI,,,,,,,,,,,,,,,,,,,,,,,,,,,,
 030714 ,GRAU,CURASCO,,,,,,,,,,,,,,,,,,,,,,,,,,,,
 030711 ,GRAU,TURPAY,,,,,,,,,,,,,,,,,,,,,,,,,,,,
 030712 ,GRAU,VILCABAMBA,,,,,,,,,,,,,,,,,,,,,,,,,,,,
