ubigeo,provincia,distrito,ordMunicipalRof,munDepende,resolApruebaPerfil,resolDesignaAtm,atmRof,atmMof,atmCap,atmTupa,equipamiento,tipoMuni,created_at,updated_at,dniUsuario
30101,ABANCAY,ABANCAY,"O.M. N° 20-2015-MPA","SUB GERENCIA DE MEDIO AMBIENTE Y SERVICIOS PUBLICOS","C.A.S.N 998-2016-GM-MPA",NULL,NULL,NULL,NULL,NULL,NULL,3,NULL,"2019-12-20 21:35:46",45101869
30102,ABANCAY,CHACOCHE,"O.M. N° 006-2016-MDCH/AB/APU","DIVISION DE SERVICIOS A LA COMUNICAD Y DE GESTION AMBIENTAL ","R.A. N° 073-2016-MDCH/AB/APU",NULL,NULL,NULL,NULL,NULL,NULL,2,NULL,NULL,71657086
30103,ABANCAY,CIRCA,"O.M. N° 004-2016-MDC","UNIDAD DE GESTION AMBIENTAL","R.A. N° 052-2016/MDC",NULL,NULL,NULL,NULL,NULL,NULL,2,NULL,NULL,46685164
30104,ABANCAY,CURAHUASI,"O.M. N° 007-2015-MDC","(DIRECCION DE DESARROLLO SOCIAL E INSTITUCIONAL)","R.A. N° 140-2015-MDC",NULL,NO,NO,NO,NO,NULL,2,NULL,"2020-02-24 13:37:53",31019056
30105,ABANCAY,HUANIPACA,O.M.N°007-2016-MDH/ABA/APU,"DEMUNA ","R.A. N° 078-2016-AL-MDH/ABA/APU",NULL,NULL,NULL,NULL,NULL,NULL,2,NULL,NULL,42859809
30106,ABANCAY,LAMBRAMA,"O.M. N° 006-2015-MDL-ABA","SUB GERENCIA DEL MEDIO AMBIENTE Y SERVICIOS PUBLICOS",R.A.N°064-2015-MDL,NULL,NULL,NULL,NULL,NULL,NULL,2,NULL,"2019-12-30 20:56:28",31011032
30107,ABANCAY,PICHIRHUA,"O.M. N°009-2016-MDP/AB.","SUB GERENCIA DE DESARROLLO ECONOMICO LOCAL Y GESTION AMBIENTAL ","R.A. N° 043-2016-MDP-AB",NULL,NULL,NULL,NULL,NULL,NULL,2,NULL,NULL,42008154
30108,ABANCAY,CACHORA,O.M.N°006-2016-MD,"UNIDAD DE SANEAMIENTO BASICO Y SERVICIOS PUBLICOS LOCALES ",R.A..N°0039-2016-MDSPC,NULL,NULL,NULL,NULL,NULL,NULL,2,NULL,NULL,43827432
30109,ABANCAY,TAMBURCO,O.M.N°008-2017-MDT-A,"AREA DE SERVICIOS MUNICIPALES","R.A. N°102-2017-AL-MDT",NULL,NULL,NULL,NULL,NULL,NULL,3,NULL,NULL,45442692
30201,ANDAHUAYLAS,ANDAHUAYLAS,"O.M. Nª 030-2017-CPA/MPA","DIRECCION DE GESTION DEL MEDIO AMBIENTE",,NULL,NULL,NULL,NULL,NULL,NULL,2,NULL,NULL,42196379
30202,ANDAHUAYLAS,ANDARAPA,"O.M. N°008-2016-MDA","SUB GERENCIA DE DESARROLLO ECONOMICO Y SOCIAL ","R-A-. Nª 152-2016-MDA/-AL",NULL,NULL,NULL,NULL,NULL,NULL,2,NULL,NULL,71688616
30203,ANDAHUAYLAS,CHIARA,"O.M. N°005-2016-MDCH","S.G DE ASUNTOS SOCIALES","R.A. N°022-2016-MDCH",NULL,NULL,NULL,NULL,NULL,NULL,2,NULL,NULL,31026732
30204,ANDAHUAYLAS,HUANCARAMA,"O.M N°04-2015-MDH-AND-APU","UNIDAD DE DESARROLLO ECONOMICO, SERVICIO DE SANEAMIENTO Y MEDIO AMBIENTE ","R.A Nª 073-2015-MDH.",NULL,NULL,NULL,NULL,NULL,NULL,2,NULL,NULL,80597403
30205,ANDAHUAYLAS,HUANCARAY,"O.M. N°006-2016/MDH","S.G. DE DESARROLLO ECONOMICO Y SOCIAL","R.A. N°062-2016/MDH/AL",NULL,NULL,NULL,NULL,NULL,NULL,2,NULL,NULL,41794973
30206,ANDAHUAYLAS,HUAYANA,"O.M. N°014-2015","DIRECCION DE DESARROLLO ECONOMICO Y AMBIENTAL ","R.A. N°040-2015/MDH",NULL,NULL,NULL,NULL,NULL,NULL,2,NULL,NULL,43171120
30207,ANDAHUAYLAS,KISHUARA,"O.M N°005-2016-MDK-AND","SUB GERENCIA DE IMFRAESTRUCTURA ","R.A. N°074-2016-MDK/AL",NULL,NULL,NULL,NULL,NULL,NULL,2,NULL,NULL,72157714
30208,ANDAHUAYLAS,PACOBAMBA,"O.M. N°005-2016-MDP.","GERENCIA Y/O  ADMINISTRACION","R.A.. N°072-2016-MDP.",NULL,NULL,NULL,NULL,NULL,NULL,2,NULL,NULL,70497895
30209,ANDAHUAYLAS,PACUCHA,"O.M. N°006-2016/MDP-CM","SUB GERENCIA DE SERVICIOS PUBLICOS MUNICIPALES  ","R.A N°099-2016-MDP-AL.",NULL,NULL,NULL,NULL,NULL,NULL,2,NULL,NULL,70160355
30210,ANDAHUAYLAS,PAMPACHIRI,"O.M. N°015-2016-MDP/A","SUB GERENCIA DE DESARROLLO ECONOMICO LOCAL Y MEDIO AMBIENTE ","R.A N°014-2016-MDP/A",NULL,NULL,NULL,NULL,NULL,NULL,2,NULL,NULL,31144145
30211,ANDAHUAYLAS,POMACOCHA,"O.M. N°0007-2016-MDP","O.DESARROLLO ECONOMICO Y SOCIAL","R.A N°033-2016-MDP",NULL,NULL,NULL,NULL,NULL,NULL,2,NULL,NULL,42340380
30212,ANDAHUAYLAS,"SAN ANTONIO DE CACHI","O.M. N°013-2016-MDSAC","SUB GERENCIA DE SERVICIOS PUBLICOS Y COMUNALES","R.A. N°058-2016-MDSAC",NULL,NULL,NULL,NULL,NULL,NULL,2,NULL,NULL,31148086
30213,ANDAHUAYLAS,"SAN JERONIMO ",NULL,NULL,NULL,NULL,NULL,NULL,NULL,NULL,NULL,2,NULL,NULL,70422402
30214,ANDAHUAYLAS,"SAN MIGUEL DE CHACCRAMPA","O.M. N°027-2016-MDSMCH","SUB GERENCIA DE SERVICIOS PUBLICOS Y COMUNALES","R.A.. N°068-2016-MDSMCH",NULL,NULL,NULL,NULL,NULL,NULL,2,NULL,NULL,31179206
30215,ANDAHUAYLAS,"SANTA MARIA DE CHICMO","O.M. Nª 004-2015-MDSMCH","SUB GERENCIA DE SERVICIOS PUBLICOS Y MEDIO AMBIENTE ","R-A-. Nª 042-1-2015-MDSCH-AND",NULL,NULL,NULL,NULL,NULL,NULL,1,NULL,NULL,31178662
30216,ANDAHUAYLAS,TALAVERA,,"DIVISION DESARROLLO AMBIENTAL",,NULL,NULL,NULL,NULL,NULL,NULL,2,NULL,NULL,31001954
30217,ANDAHUAYLAS,TUMAYHUARACA,"O.M. N°006-2016-MDT","O.DESARROLLO ECONOMICO Y SOCIAL","R.A.. N°097-2016-MDT-AL",NULL,NULL,NULL,NULL,NULL,NULL,1,NULL,NULL,31347878
30218,ANDAHUAYLAS,TURPO,"O.M. N°008-2016-MDT"," SERVICIOS PUBLICOS Y ASUNTOS SOCIALES","R.A. N°025-2017-MDT-AL",NULL,NULL,NULL,NULL,NULL,NULL,2,NULL,NULL,46667185
30219,ANDAHUAYLAS,KAQUIABAMBA,"O.M. N°007-2015/MDK/A","SUB GERENCIA DE DESARROLLO URBANO Y RURAL ",R.A.N°059-2015-AL/MDK,NULL,NULL,NULL,NULL,NULL,NULL,2,NULL,NULL,43602536
30220,ANDAHUAYLAS,"JOSE MARIA ARGUEDAS",O.M..N°004-2016,"OFICIA DE DESARROLLO ECONOMICO LOCAL Y MEDIO AMBIENTE","R.A.N°017-2016-MD/JMA              R.A.N°017-2017-MD/JMA",NULL,NULL,NULL,NULL,NULL,NULL,2,NULL,NULL,31174100
30301,ANTABAMBA,ANTABAMBA,"O.M. N° 015-2016-MPA-APU","SUB GERENCIA DEL MEDIO AMBIENTE Y SERVICIOS PUBLICOS ","R.A. N° 112-2015- MPA-APU",NULL,NULL,NULL,NULL,NULL,NULL,2,NULL,NULL,30300322
30302,ANTABAMBA,"EL ORO","O.M. N° 05-2016-MDEO-","DIRECCION DE DESARROLLO ECONOMICO Y MEDIO AMBIENTE ","R.A. N°30-2016- MDEO",NULL,NULL,NULL,NULL,NULL,NULL,2,NULL,NULL,46061573
30303,ANTABAMBA,HUAQUIRCA,"O.M. N°03-2016-MDH-ANT-APU","UNIDAD DEL MEDIO AMBIENTE Y SERVICIOS PUBLICOS LOCALES ","R.A.. N°17-2016-MDH-ANT/APUR",NULL,NULL,NULL,NULL,NULL,NULL,2,NULL,NULL,46705572
30304,ANTABAMBA,"JUAN ESPINOZSA MEDRANO","O.M. N° 020-2016-MDJEM-A-APU","DIRECCION DE DESARROLLO Y MEDIO AMBIENTE","R.A. N° 095-2017- MDJEM-A-APU",NULL,NULL,NULL,NULL,NULL,NULL,2,NULL,NULL,40693421
30305,ANTABAMBA,OROPESA,"O.M. N° 05-2016-MDO-","GERENCIA MUNICIPAL              ","R.A. N° 40-2016-MDO/",NULL,NULL,NULL,NULL,NULL,NULL,2,NULL,NULL,42109575
30306,ANTABAMBA,PACHACONAS,NULL,NULL,NULL,NULL,NULL,NULL,NULL,NULL,NULL,2,NULL,NULL,42585141
30307,ANTABAMBA,SABAINO,"O.M. N° 18-2017-MDS","UNIDAD DEL MEDIO AMBIENTE Y SERVICIOS PUBLICOS LOCALES","R.A. N°038-2016-MDS-ANT-APU",NULL,NULL,NULL,NULL,NULL,NULL,2,NULL,NULL,71199031
30401,AYMARAES,CHALHUANCA,"  O. M. Nº 030-2015-MPA-CH.","GERENCIA DE MEDIO AMBIENTE Y SERVICIOS PUBLICOS ","R.A. Nº 163-2015-MPA/CH.",NULL,NULL,NULL,NULL,NULL,NULL,2,NULL,NULL,47246155
30402,AYMARAES,CAPAYA,"  O. M. Nº 009-2016-MDC .","OFICINA DE DESARROLLO SOCIAL Y SERVICIOS LOCALES ","  R.A. Nº 102-2016-MDC-ALC .",NULL,NULL,NULL,NULL,NULL,NULL,2,NULL,NULL,31033691
30403,AYMARAES,CARAYBAMBA,"O.M. N°006-2016-MDC-A","UNIDAD DE DESARROLLO SOCIAL E INSTITUCIONAL","R.A. Nº 017-2016/MDC-AYMARAES/A",NULL,NULL,NULL,NULL,NULL,NULL,2,NULL,NULL,45173050
30404,AYMARAES,CHAPIMARCA,"O.M. N°013-2015-/MDCH-AY","DIRECCIÓN DE DESARROLLO URBANO  E INFRAESTRUCTURA  ","R.A. N°029-2015-MDCH/AY/APURIMAC",NULL,NULL,NULL,NULL,NULL,NULL,1,NULL,NULL,40637293
30405,AYMARAES,COLCABAMBA,"O.M N°014-2017-MDC-AYM","DIRECCION DE DESARROLLO ECONOMICO Y AMBIENTAL","R.A. N°037-2016-MDC-AYM.",NULL,NULL,NULL,NULL,NULL,NULL,2,NULL,NULL,45807253
30406,AYMARAES,COTARUSE,"O.M. N°010-2016-MDC/AYM/APU","OFICINA DE DESARROLLO ECONOMICO AMBIENTAL","R.A. N°098-2016-A-MDC./AYM./APU",NULL,NULL,NULL,NULL,NULL,NULL,2,NULL,NULL,47559654
30407,AYMARAES,IHUAYLLO,"O.M. N°06-2016-MDI-AY","UNIDAD DE MEDIO AMBIENTE Y SERVICIOS PUBLICOS","R.A. N°018-2016-MDI-",NULL,NULL,NULL,NULL,NULL,NULL,1,NULL,NULL,45173050
30408,AYMARAES,"JUSTO APU SAHUARAURA","O.M N°10-2016-MDJA-AY.            ","GERENCIA DE OBRAS ","R.A. N°005-2016/MDJAS/ALC",NULL,NULL,NULL,NULL,NULL,NULL,2,NULL,NULL,31364833
30409,AYMARAES,LUCRE,"O.M. N°009-2016-MDL/AYM/APU.","AREA DE SERVICIOS PUBLICOS ","R.A. N° 099-2016-MDL/AYM/ APU.",NULL,NULL,NULL,NULL,NULL,NULL,2,NULL,NULL,42787364
30410,AYMARAES,POCOHUANCA,"O.M. N°003-2016-MDP-A-AP.","UNIDAD DE MEDIO AMBIENTE Y SERVICIOS PUBLICOS LOCALES","R.A. N°040-2017-MDP-A/AP",NULL,NULL,NULL,NULL,NULL,NULL,2,NULL,NULL,47201070
30411,AYMARAES,"SAN JUAN DE CHACÃA","O.M. NÂḞ004-2016-MDSJCH-AYM-APU.                                          ","DIRECCION DE SERVICIOS COMUNALES Y SOCIALES","R.A. NÂḞ021-2016-MDSJCH-AYM-APU",NULL,NULL,NULL,NULL,NULL,NULL,2,NULL,NULL,31352351
30412,AYMARAES,SAÑAYCA," O.M.  N° 011-2017-M.D.SAÑAYCA","OFICINA DE DESARROLLO ECONOMICO AMBIENTAL "," O.M.  N° 078-2017-M.D.SAÑAYCA",NULL,NULL,NULL,NULL,NULL,NULL,2,NULL,NULL,48022301
30413,AYMARAES,SORAYA," O.M.  N° 009-2016-MDS/CM.     ","NO SE VISUALIZA  ","R.A. Nº 110-2016-MDS/ALC.",NULL,NULL,NULL,NULL,NULL,NULL,2,NULL,NULL,41278095
30414,AYMARAES,TAPAIRIHUA,"O.M. N°009-2016-MDT-AYM-","GERENCIA DE OBRAS","R.A. N°099 -2016-MDT-AY.",NULL,NULL,NULL,NULL,NULL,NULL,2,NULL,NULL,72093602
30415,AYMARAES,TINTAY,"O.M. N°013-2016-A-MDT","UNIDAD DE MEDIO AMBIENTE Y SERVICIOS PUBLICOS LOCALES ","R.A.. N°047-2016-A-MDT",NULL,NULL,NULL,NULL,NULL,NULL,2,NULL,NULL,48504573
30416,AYMARAES,TORAYA,"O.M. N°006-2016-MDT/AYM/APU","UNIDAD DE MEDIO AMBIENTE Y SERVICIOS PUBLICOS LOCALES ","R.A. N°079-2016 -MDT/AYM/APU",NULL,NULL,NULL,NULL,NULL,NULL,2,NULL,NULL,70783808
30417,AYMARAES,YANACA,"O.M. N° 005-2016 MDY","AREA DE DESARROLLO ECONOMICO LOCAL Y AMBIENTAL","R.A. N° 019-2016/MDY",NULL,NULL,NULL,NULL,NULL,NULL,2,NULL,NULL,31358401
30501,COTABAMBAS,TAMBOBAMBA,"O.M. N° 022-2013 CM-MPCT/RA","SUB GERENCIA DE AGUA POTABLE Y SANEAMIENTO ","R.A. N°158-2015-A-MPCT/RA",NULL,NULL,NULL,NULL,NULL,NULL,1,NULL,NULL,23858133
30502,COTABAMBAS,COTABAMBAS,"O.M. N° 004-2016-MDC/A","SUB GERENCIA GESTION AMBIENTAL Y TERRITORIALIDAD ","R.A. Nª 074-2016-A-MDC/C",NULL,NULL,NULL,NULL,NULL,NULL,2,NULL,NULL,44601247
30503,COTABAMBAS,COYLLURQUI,"O.M. N° 004-2016-CM.-MDC-PC/RA,","NO SE VISUALIZA","R.A. Nª 109-2016-A-MCD-PC/RA",NULL,NULL,NULL,NULL,NULL,NULL,2,NULL,NULL,45656776
30504,COTABAMBAS,HAQUIRA,"O.M. N° 004-2015-MDH-C-M,","SUB GERENCIA DE SERVICIOS MUNICIPALES Y MEDIO AMBIENTE",,NULL,NULL,NULL,NULL,NULL,NULL,2,NULL,NULL,45185618
30505,COTABAMBAS,MARA,"O.M. N° 005-2017-CM-MDM","NO SE VISUALIZA","R.A.N° 033-2017-A-MDM",NULL,NULL,NULL,NULL,NULL,NULL,2,NULL,NULL,80124093
30506,COTABAMBAS,CHALHUAHUACHO,"O.M.. Nª 014-2015-CH-C","SUB GERENCIA DEL MEDIO AMBIENTE Y RECURSOS NATURALES ","R.A. Nª 249-2015/MDCH/C/A-",NULL,NULL,NULL,NULL,NULL,NULL,2,NULL,NULL,45101869
30601,CHINCHEROS,CHINCHEROS,"O.M. N° 14-2015-MPCH-SG ","SUB GERENCIA DE SERVICIOS PUBLICOS","R.A. N° 252-2015-MPCH-SG",NULL,NULL,NULL,NULL,NULL,NULL,1,NULL,NULL,47782505
30602,CHINCHEROS,"ANCO HUAYLLO/ URIPA","O.M. N° 22 - 2015-MDA/URIPA","S.G. DE SERVICIOS MUNICIPALES Y AMBIENTAL ","R.A. N° 231-2015MDAH/AL",NULL,NULL,NULL,NULL,NULL,NULL,2,NULL,NULL,70337787
30603,CHINCHEROS,COCHARCAS,"O.M. N° 04 - 2016-MDC-CH-APU","S.G. DE INFRAESTRUCTURA Y DESARROLLO URBANO ","R.A.. N° 031- 2016-MDC/AL",NULL,NULL,NULL,NULL,NULL,NULL,1,NULL,NULL,41282353
30604,CHINCHEROS,HUACCANA,"O.M. N° 001 - 2015-MDH-VRAEM","S.G. DE SERVICIOS PUBLICOS  ","R,A, N° 158 - 2016-MDH-VRAEM",NULL,NULL,NULL,NULL,NULL,NULL,2,NULL,NULL,73576699
30605,CHINCHEROS,OCOBAMBA,"O.M. N° 004 - 2016-MDO","S.G. DE SERVICIOS PUBLICOS","R.A. N°125 - 2016-AL/MDO",NULL,NULL,NULL,NULL,NULL,NULL,2,NULL,NULL,31478567
30606,CHINCHEROS,ONGOY,"O.M. N° 007- 2016-A-MDO-VRAEM","S.G. DE DESARROLLO ECONOMICO Y AMBIENTAL  ","R.A. N°116-2016-A-MDO/A",NULL,NULL,NULL,NULL,NULL,NULL,2,NULL,NULL,41835669
30607,CHINCHEROS,URANMARCA,"O.M N°013-2016-MDU-RA","SUB GERENCIA DE SERVICIOS PUBLICOS Y MEDIO AMBIENTE ","R.A. N°080-2016-AL-MDU-",NULL,NULL,NULL,NULL,NULL,NULL,2,NULL,NULL,20579191
30608,CHINCHEROS,RANRACANCHA,"O.M N°016-2016-MDR","S.G. DE SERVICIOS PUBLICOS Y MEDIO AMBIENTE  ","R.A. N° 047 -2017-MDA-A",NULL,NULL,NULL,NULL,NULL,NULL,2,NULL,NULL,42542306
30609,CHINCHEROS,ROCCHAC,"O.M N°003-2017-AL-MDR","GERENCIA DE OBRAS","R.A. N° 003 -2017-AL-MDR",NULL,NULL,NULL,NULL,NULL,NULL,2,NULL,NULL,70364878
30610,CHINCHEROS,"EL PORVENIR","O.M. N° 02-2017","S.G.DE RENTAS COMERCIALIZACION, SERVICIOS PUBLICOS Y TRANSPORTE","R.A.. N° 028-1- 2017-AL-MDEP",NULL,NULL,NULL,NULL,NULL,NULL,2,NULL,NULL,70081908
30611,CHINCHEROS,"LOS CHANCAS","O.M. N° 001 - 2017-MDCH","SUB GERENCIA DE DESARROLLO SOCIAL","R,A, N° 017-- 2017-MDLCH",NULL,NULL,NULL,NULL,NULL,NULL,2,NULL,NULL,72026102
30701,GRAU,CHUQUIBAMBILLA,"O.M. N°008-2015","NO SE VISUALIZA  ","R.A. N°384-A-2016- MPG/Ap.",NULL,NULL,NULL,NULL,NULL,NULL,2,NULL,NULL,42754407
30702,GRAU,CURPAHUASI,O.M.N°008-2016-MDC,"UNIDAD DEL MEDIO AMBIENTE Y SERVICIOS PUBLICOS LOCALES","R.A. Nº 051-2016 MDC/A-APU.",NULL,NULL,NULL,NULL,NULL,NULL,2,NULL,NULL,31523289
30703,GRAU,"MARISCAL GAMARRA","O.M. N° 008-2016-MDMG-G/AP","DIRECCION DE INFRAESTRUCTURA Y DESARROLLO TERRITORIAL","R.A. N° 051-2016-MDMG-G/AP",NULL,NULL,NULL,NULL,NULL,NULL,2,NULL,NULL,31033305
30704,GRAU,HUAYLLATI,"O.M. N° 013-2016-MDH-G-APU","NO SE VISUALIZA ","R. N° 107-2016-MDH-GRAU",NULL,NULL,NULL,NULL,NULL,NULL,2,NULL,NULL,45740205
30705,GRAU,MAMARA,"O.M. N° 002-2016-MDM/GRAUAP","DIRECCION DE DESARROLLO ECONOMICO Y AMBIENTAL   ","R.A. N° 080-2016-MDM/GRAU/AP.               R.A. N° 0180-2015-MDM/GRAU/AP.",NULL,NULL,NULL,NULL,NULL,NULL,2,NULL,NULL,31528427
30706,GRAU,"MICAELA BASTIDAS","O.M. N° 048-2016-MDMB-GRAU","GERENCIA GENERAL ","R.A. N°028-2016-MDMB-GRAU",NULL,NULL,NULL,NULL,NULL,NULL,2,NULL,NULL,45944484
30707,GRAU,PATAYPAMPA,"O.M. N° 13-2017-MDP-GR-APU","AREA DE INFRAESTRUCTURA ","R.A. N°020-2016-MDP-GRAU-APU",NULL,NULL,NULL,NULL,NULL,NULL,2,NULL,NULL,40811328
30708,GRAU,PROGRESO,"O.M.N° 008-2016-MDO-GRAU APURIMAC","OFICINA DE DESARROLLO ECONOMICO ","R.A.  N° 170-2016-MDP-GRAU-APU.",NULL,NULL,NULL,NULL,NULL,NULL,2,NULL,NULL,40809113
30709,GRAU,"SAN ANTONIO","O.M. N° 007-2016-MDSA-GRAU/APU","AREA DE IMFRAESTRUCTURA Y DESARROLLO URBANO RURAL ","R.A. N° 012-2016-MDSR-GRAU-APU.",NULL,NULL,NULL,NULL,NULL,NULL,2,NULL,NULL,74317617
30710,GRAU,"SANTA ROSA","O.M. N° 010-2016-MDSR-G-AP","DEPARTAMENTO DE DESARROLLO ECONOMICO Y LOCAL   ","R.A. N° 034-2017-MDSR-GRAU-APU",NULL,NULL,NULL,NULL,NULL,NULL,2,NULL,NULL,48195517
30711,GRAU,TURPAY,"O.M.  N°005-2016-MDT","DEPARTAMETO DEL MEDIO AMBIENTE","R.A. N° 70-2016-MDT-GRAU/APU",NULL,NULL,NULL,NULL,NULL,NULL,2,NULL,NULL,46718300
30712,GRAU,VILCABAMBA,"O.M N° 002-2016-MDV.G.","AREA DE SANEAMIENTO AMBIENTAL Y SERVICIOS MUNICIPALES","R.A. N° 019-2016-MDV",NULL,NULL,NULL,NULL,NULL,NULL,2,NULL,NULL,46549374
30713,GRAU,VIRUNDO,"O.M. N° 07-2016-MDV-G-APU","AREA DE GERENCIA DE SERVICIOS SOCIALES","R.A. N° 035-2017-MDV-GRAU-APU",NULL,NULL,NULL,NULL,NULL,NULL,2,NULL,NULL,48388253
30714,GRAU,CURASCO,"O.M. N°007-2016-MDC/GRAU/APU","UNIDAD DE DESARROLLO ECONOMICO Y SOCIAL ","R.A. N° 011-2016-MDC/GRAU/APU",NULL,NULL,NULL,NULL,NULL,NULL,2,NULL,NULL,70763433
