idFormacion,ubigeo
formacion0001,30101
formacion0002,30102
formacion0003,30103
formacion0004,30104
formacion0005,30105
formacion0006,30106
formacion0007,30107
formacion0008,30108
formacion0009,30109
formacion0010,30201
formacion0011,30202
formacion0012,30203
formacion0013,30204
formacion0014,30205
formacion0015,30206
formacion0016,30207
formacion0017,30208
formacion0018,30209
formacion0019,30210
formacion0020,30211
formacion0021,30212
formacion0022,30213
formacion0023,30214
formacion0024,30215
formacion0025,30216
formacion0026,30217
formacion0027,30218
formacion0028,30219
formacion0029,30220
formacion0030,30301
formacion0031,30302
formacion0032,30303
formacion0033,30304
formacion0034,30305
formacion0035,30306
formacion0036,30307
formacion0037,30401
formacion0038,30402
formacion0039,30403
formacion0040,30404
formacion0041,30405
formacion0042,30406
formacion0043,30407
formacion0044,30408
formacion0045,30409
formacion0046,30410
formacion0047,30411
formacion0048,30412
formacion0049,30413
formacion0050,30414
formacion0051,30415
formacion0052,30416
formacion0053,30417
formacion0054,30501
formacion0055,30502
formacion0056,30503
formacion0057,30504
formacion0058,30505
formacion0059,30506
formacion0060,30601
formacion0061,30602
formacion0062,30603
formacion0063,30604
formacion0064,30605
formacion0065,30606
formacion0066,30607
formacion0067,30608
formacion0068,30609
formacion0069,30610
formacion0070,30611
formacion0071,30701
formacion0072,30702
formacion0073,30703
formacion0074,30704
formacion0075,30705
formacion0076,30706
formacion0077,30707
formacion0078,30708
formacion0079,30709
formacion0080,30710
formacion0081,30711
formacion0082,30712
formacion0083,30713
formacion0084,30714
